{
  "name": "creativecode",
  "private": true,
  "version": "0.0.0",
  "type": "module",
  "scripts": {
    "dev": "vite",
    "build": "vite build",
    "preview": "vite preview",
    "run-build": "cross-env DEBUG=vite-plugin-pwa:* BASE_URL=/ SOURCE_MAP=true vite build",
    "start": "npm run run-build && npm run serve",
    "serve": "NODE_ENV=production serve",
    "lint": "eslint --ext .js,.vue src",
    "lint:fix": "eslint --fix --ext .js,.vue src",
    "prettier": "prettier --check \"**/*.{js,vue}\"",
    "prettier:fix": "prettier --write \"**/*.{js,vue}\"",
    "stylelint": "stylelint \"**/*.css\"",
    "stylelint:fix": "stylelint \"**/*.css\" --fix",
    "lint:styles": "stylelint \"**/*.{css,scss,sass,less,vue}\""
  },
  "dependencies": {
    "@vitejs/plugin-basic-ssl": "^1.0.1",
    "serve": "^14.2.0",
    "vue": "^3.2.47"
  },
  "devDependencies": {
    "@headlessui/vue": "^1.7.14",
    "@tailwindcss/typography": "^0.5.9",
    "@vitejs/plugin-vue": "^4.1.0",
    "autoprefixer": "^10.4.14",
    "axios": "^1.3.6",
    "cross-env": "^7.0.3",
    "daisyui": "^3.1.6",
    "eslint": "^8.37.0",
    "eslint-config-prettier": "^8.8.0",
    "eslint-config-standard-with-typescript": "^34.0.1",
    "eslint-plugin-prettier": "^4.2.1",
    "eslint-plugin-vue": "^9.10.0",
    "postcss": "^8.4.22",
    "postcss-html": "^1.5.0",
    "prettier": "^2.8.7",
    "prettier-plugin-tailwindcss": "^0.2.7",
    "sass": "^1.62.0",
    "stylelint": "^15.9.0",
    "tailwindcss": "^3.3.1",
    "vee-validate": "^4.10.2",
    "vite": "^4.2.1",
    "vite-plugin-eslint": "^1.8.1",
    "vite-plugin-mkcert": "^1.13.4",
    "vite-plugin-pwa": "^0.16.4",
    "vue-router": "^4.1.6",
    "yup": "^1.1.1"
  }
}
